Load data for a particular pathogen — load_data • epireview
…
return data for table_type and pathogen

    Examples

load_data("outbreak","marburg")
#> Rows: 23 Columns: 20
#> ── Column specification ────────────────────────────────────────────────────────
#> Delimiter: ","
#> chr  (5): outbreak_start_month, outbreak_end_month, outbreak_country, outbre...
#> dbl (13): outbreak_id, article_id, outbreak_start_day, outbreak_start_year, ...
#> lgl  (2): outbreak_size, asymptomatic_transmission
#> 
#> ℹ Use `spec()` to retrieve the full column specification for this data.
#> ℹ Specify the column types or set `show_col_types = FALSE` to quiet this message.
#> # A tibble: 23 × 20
#>    outbreak_id article_id outbreak_start_day outbreak_start_month
#>          <dbl>      <dbl>              <dbl> <chr>               
#>  1           4         20                 NA Aug                 
#>  2           5         23                 18 Aug                 
#>  3           6         23                 18 Oct                 
#>  4           7         21                 NA Oct                 
#>  5          10         33                 NA NA                  
#>  6          12         42                 NA Jul                 
#>  7          13         45                 NA Oct                 
#>  8          14         49                 10 Jun                 
#>  9          17         57                 NA Oct                 
#> 10          19         60                 12 Feb                 
#> # ℹ 13 more rows
#> # ℹ 16 more variables: outbreak_start_year <dbl>, outbreak_end_day <dbl>,
#> #   outbreak_end_month <chr>, outbreak_date_year <dbl>,
#> #   outbreak_duration_months <dbl>, outbreak_size <lgl>,
#> #   asymptomatic_transmission <lgl>, outbreak_country <chr>,
#> #   outbreak_location <chr>, cases_confirmed <dbl>, cases_mode_detection <chr>,
#> #   cases_suspected <dbl>, cases_asymptomatic <dbl>, deaths <dbl>, …
…
