…
[`load_epidata()`](https://mrc-ide.github.io/epireview/reference/load_epidata.md)
for a more user-friendly interface

## Examples

``` r
load_epidata_raw(pathogen = "marburg", table = "outbreak")
#> Warning: The following columns were not specified in col_types: covidence_id.x,
#> outbreak_data_id, covidence_id.y
#> Warning: These columns will be read in as character vectors.
#> Warning: Data contributors: please carefully check that this does not lead to loss of
#> information. If it does, please update the column types in the epireview
#> package and submit a PR.
#> # A tibble: 23 × 24
#>    outbreak_id article_id outbreak_start_day outbreak_start_month
#>    <chr>            <int>              <dbl> <chr>               
#>  1 4                   20                 NA Aug                 
#>  2 5                   23                 18 Aug                 
#>  3 6                   23                 18 Oct                 
#>  4 7                   21                 NA Oct                 
#>  5 10                  33                 NA NA                  
#>  6 12                  42                 NA Jul                 
#>  7 13                  45                 NA Oct                 
#>  8 14                  49                 10 Jun                 
#>  9 17                  57                 NA Oct                 
#> 10 19                  60                 12 Feb                 
#> # ℹ 13 more rows
#> # ℹ 20 more variables: outbreak_start_year <dbl>, outbreak_end_day <dbl>,
#> #   outbreak_end_month <chr>, outbreak_date_year <dbl>,
#> #   outbreak_duration_months <dbl>, outbreak_size <dbl>,
#> #   asymptomatic_transmission <lgl>, outbreak_country <chr>,
#> #   outbreak_location <chr>, cases_confirmed <dbl>, cases_mode_detection <chr>,
#> #   cases_suspected <int>, cases_asymptomatic <int>, deaths <int>, …
```
